CHL8010: Statistical Programming and Computation in Health Data
…
Storing counts in `nn`, as `n` already present in input
ℹ Use `name = "new_name"` to pick a new name.

   n  nn
1 20 186

#Plotting conflicts by ISO Code (only for countries with minimum 1 conflict)
conflict_data <- Final_data %>%
  group_by(ISO) %>%
  summarise(total_conflicts = sum(Conflict, na.rm = TRUE)) %>%
  filter(total_conflicts > 0) %>%
  arrange(desc(total_conflicts))
conflict_data

# A tibble: 88 × 2
   ISO   total_conflicts
   <chr>           <int>
 1 AFG                20
 2 COD                20
 3 COL                20
 4 DZA                20
 5 ETH                20
 6 IND                20
 7 IRQ                20
 8 MMR                20
 9 NGA                20
10 PAK                20
# ℹ 78 more rows

#Plotting deaths by ISO Code (only for countries with minimum 1 conflict related death)
death_data <- Final_data %>%
  group_by(ISO) %>%
  summarise(total_deaths = sum(Totdeath, na.rm = TRUE)) %>%
  filter(total_deaths > 0) %>%
  arrange(desc(total_deaths))
death_data

# A tibble: 100 × 2
   ISO   total_deaths
   <chr>        <int>
 1 SYR         386891
 2 AFG         171391
 3 IRQ          91429
 4 ETH          87066
 5 COD          52492
 6 SDN          51355
 7 NGA          51114
 8 PAK          40789
 9 IND          32704
10 MEX          32686
# ℹ 90 more rows
…
